-- Merging decision tree log ---
manifest
ADDED from F:\Estudios\DAMv\2n\M08\Android-Projects\GitData\Example1\ComposeTrainingAffirmations\app\src\main\AndroidManifest.xml:2:1-32:12
INJECTED from F:\Estudios\DAMv\2n\M08\Android-Projects\GitData\Example1\ComposeTrainingAffirmations\app\src\main\AndroidManifest.xml:2:1-32:12
INJECTED from F:\Estudios\DAMv\2n\M08\Android-Projects\GitData\Example1\ComposeTrainingAffirmations\app\src\main\AndroidManifest.xml:2:1-32:12
INJECTED from F:\Estudios\DAMv\2n\M08\Android-Projects\GitData\Example1\ComposeTrainingAffirmations\app\src\main\AndroidManifest.xml:2:1-32:12
MERGED from [androidx.compose.ui:ui-tooling:1.3.3] C:\Users\Hugo Sanchis León\.gradle\caches\transforms-3\c3199c328fd778b34148698ef5a27f5c\transformed\ui-tooling-1.3.3\AndroidManifest.xml:17:1-28:12
MERGED from [androidx.activity:activity-compose:1.6.1] C:\Users\Hugo Sanchis León\.gradle\caches\transforms-3\21613ff9798afbe96fc325717b5d2cd9\transformed\activity-compose-1.6.1\AndroidManifest.xml:17:1-22:12
MERGED from [androidx.compose.material:material:1.3.1] C:\Users\Hugo Sanchis León\.gradle\caches\transforms-3\16c762070fc05c6ea42581d434ce85ff\transformed\material-1.3.1\AndroidManifest.xml:17:1-22:12
MERGED from [androidx.compose.material:material-ripple:1.3.1] C:\Users\Hugo Sanchis León\.gradle\caches\transforms-3\6b2d7237cc8b096123e01a24f86324a3\transformed\material-ripple-1.3.1\AndroidManifest.xml:17:1-22:12
MERGED from [androidx.compose.foundation:foundation:1.3.1] C:\Users\Hugo Sanchis León\.gradle\caches\transforms-3\5f2d19add301ba246a90e2c063acaa26\transformed\foundation-1.3.1\AndroidManifest.xml:17:1-22:12
MERGED from [androidx.compose.animation:animation:1.3.3] C:\Users\Hugo Sanchis León\.gradle\caches\transforms-3\a6998fdb4dc636927988f9ff623566e2\transformed\animation-1.3.3\AndroidManifest.xml:17:1-22:12
MERGED from [androidx.compose.foundation:foundation-layout:1.3.1] C:\Users\Hugo Sanchis León\.gradle\caches\transforms-3\04e9a7a7516b7b770e9d1aed94325ca9\transformed\foundation-layout-1.3.1\AndroidManifest.xml:17:1-22:12
MERGED from [androidx.compose.animation:animation-core:1.3.3] C:\Users\Hugo Sanchis León\.gradle\caches\transforms-3\9d2e64123f828b74c43839ff52de8fd7\transformed\animation-core-1.3.3\AndroidManifest.xml:17:1-22:12
MERGED from [androidx.compose.material:material-icons-core:1.3.1] C:\Users\Hugo Sanchis León\.gradle\caches\transforms-3\cf00e3d4650e2ada1949ff4c33fabe68\transformed\material-icons-core-1.3.1\AndroidManifest.xml:17:1-22:12
MERGED from [androidx.compose.ui:ui-tooling-data:1.3.3] C:\Users\Hugo Sanchis León\.gradle\caches\transforms-3\e0ff635cdf776c0a107f0505e9181a3c\transformed\ui-tooling-data-1.3.3\AndroidManifest.xml:17:1-22:12
MERGED from [androidx.compose.ui:ui:1.3.3] C:\Users\Hugo Sanchis León\.gradle\caches\transforms-3\52b45868cf99d047206d668a91b0a426\transformed\ui-1.3.3\AndroidManifest.xml:17:1-22:12
MERGED from [com.google.android.material:material:1.6.0] C:\Users\Hugo Sanchis León\.gradle\caches\transforms-3\c14179c02910a23af6f77ba66d2c00d2\transformed\material-1.6.0\AndroidManifest.xml:17:1-26:12
MERGED from [androidx.constraintlayout:constraintlayout:2.1.3] C:\Users\Hugo Sanchis León\.gradle\caches\transforms-3\17f76ce8bd57548492400a822f4643dd\transformed\constraintlayout-2.1.3\AndroidManifest.xml:2:1-11:12
MERGED from [androidx.appcompat:appcompat:1.4.1] C:\Users\Hugo Sanchis León\.gradle\caches\transforms-3\9fd771c07f505c63db2b98da870d264c\transformed\appcompat-1.4.1\AndroidManifest.xml:17:1-24:12
MERGED from [androidx.viewpager2:viewpager2:1.0.0] C:\Users\Hugo Sanchis León\.gradle\caches\transforms-3\530f195b1fa1b2ab98a0b2be2a44830e\transformed\viewpager2-1.0.0\AndroidManifest.xml:17:1-24:12
MERGED from [androidx.fragment:fragment:1.3.6] C:\Users\Hugo Sanchis León\.gradle\caches\transforms-3\9a253c2837bcb19150d26f84dfb17bd1\transformed\fragment-1.3.6\AndroidManifest.xml:17:1-24:12
MERGED from [androidx.activity:activity:1.6.1] C:\Users\Hugo Sanchis León\.gradle\caches\transforms-3\9438d3230e9d46676bab40993d198faf\transformed\activity-1.6.1\AndroidManifest.xml:17:1-22:12
MERGED from [androidx.activity:activity-ktx:1.6.1] C:\Users\Hugo Sanchis León\.gradle\caches\transforms-3\ea2196d81e6a28f33588e5af28f7d1e1\transformed\activity-ktx-1.6.1\AndroidManifest.xml:17:1-22:12
MERGED from [androidx.lifecycle:lifecycle-runtime-ktx:2.5.1] C:\Users\Hugo Sanchis León\.gradle\caches\transforms-3\27a778a7f895a17047fd1c28e4e92f05\transformed\lifecycle-runtime-ktx-2.5.1\AndroidManifest.xml:17:1-24:12
MERGED from [androidx.compose.ui:ui-tooling-preview:1.3.3] C:\Users\Hugo Sanchis León\.gradle\caches\transforms-3\a5b18e53e99a13acab392c7b94aebe75\transformed\ui-tooling-preview-1.3.3\AndroidManifest.xml:17:1-22:12
MERGED from [androidx.compose.ui:ui-text:1.3.3] C:\Users\Hugo Sanchis León\.gradle\caches\transforms-3\ca694a388762432396ed10d67755a221\transformed\ui-text-1.3.3\AndroidManifest.xml:17:1-22:12
MERGED from [androidx.compose.runtime:runtime-saveable:1.3.3] C:\Users\Hugo Sanchis León\.gradle\caches\transforms-3\e4d505e2eef4e37013d957e4b9f3b572\transformed\runtime-saveable-1.3.3\AndroidManifest.xml:17:1-22:12
MERGED from [androidx.compose.ui:ui-graphics:1.3.3] C:\Users\Hugo Sanchis León\.gradle\caches\transforms-3\8f2b106fea21316623ce4b2eb57189e1\transformed\ui-graphics-1.3.3\AndroidManifest.xml:17:1-22:12
MERGED from [androidx.compose.ui:ui-unit:1.3.3] C:\Users\Hugo Sanchis León\.gradle\caches\transforms-3\7b478581cfd9117d8c46cc718ea84483\transformed\ui-unit-1.3.3\AndroidManifest.xml:17:1-22:12
MERGED from [androidx.compose.ui:ui-geometry:1.3.3] C:\Users\Hugo Sanchis León\.gradle\caches\transforms-3\84be76559d4407832e6a96eb3fd05e84\transformed\ui-geometry-1.3.3\AndroidManifest.xml:17:1-22:12
MERGED from [androidx.compose.runtime:runtime:1.3.3] C:\Users\Hugo Sanchis León\.gradle\caches\transforms-3\5820fbc5f0a07c31e1c99c597eb72279\transformed\runtime-1.3.3\AndroidManifest.xml:17:1-22:12
MERGED from [androidx.lifecycle:lifecycle-viewmodel-ktx:2.5.1] C:\Users\Hugo Sanchis León\.gradle\caches\transforms-3\45fd1ceae068762f4188254acd09cbe8\transformed\lifecycle-viewmodel-ktx-2.5.1\AndroidManifest.xml:17:1-24:12
MERGED from [androidx.dynamicanimation:dynamicanimation:1.0.0] C:\Users\Hugo Sanchis León\.gradle\caches\transforms-3\cf107da67373cb53798ab12d9a0be666\transformed\dynamicanimation-1.0.0\AndroidManifest.xml:17:1-22:12
MERGED from [androidx.legacy:legacy-support-core-utils:1.0.0] C:\Users\Hugo Sanchis León\.gradle\caches\transforms-3\f34cdcab3a89a1b24611014588c6832a\transformed\legacy-support-core-utils-1.0.0\AndroidManifest.xml:17:1-22:12
MERGED from [androidx.loader:loader:1.0.0] C:\Users\Hugo Sanchis León\.gradle\caches\transforms-3\a0dcf140393c72bb45c8f5e7e9b53a7b\transformed\loader-1.0.0\AndroidManifest.xml:17:1-22:12
MERGED from [androidx.lifecycle:lifecycle-viewmodel:2.5.1] C:\Users\Hugo Sanchis León\.gradle\caches\transforms-3\605df907327ce79960ed4955ad778d9e\transformed\lifecycle-viewmodel-2.5.1\AndroidManifest.xml:17:1-24:12
MERGED from [androidx.lifecycle:lifecycle-viewmodel-savedstate:2.5.1] C:\Users\Hugo Sanchis León\.gradle\caches\transforms-3\78b985d00c8343041db81ec10920f706\transformed\lifecycle-viewmodel-savedstate-2.5.1\AndroidManifest.xml:17:1-24:12
MERGED from [androidx.coordinatorlayout:coordinatorlayout:1.1.0] C:\Users\Hugo Sanchis León\.gradle\caches\transforms-3\8fa255a5c9f064bb7d64fc390e8922da\transformed\coordinatorlayout-1.1.0\AndroidManifest.xml:17:1-24:12
MERGED from [androidx.drawerlayout:drawerlayout:1.1.1] C:\Users\Hugo Sanchis León\.gradle\caches\transforms-3\c146fd0a36d8ec65594e51f5d96f333f\transformed\drawerlayout-1.1.1\AndroidManifest.xml:17:1-24:12
MERGED from [androidx.transition:transition:1.2.0] C:\Users\Hugo Sanchis León\.gradle\caches\transforms-3\c03d6f10ce46c86ee9ef9a4e5ea928b0\transformed\transition-1.2.0\AndroidManifest.xml:17:1-24:12
MERGED from [androidx.appcompat:appcompat-resources:1.4.1] C:\Users\Hugo Sanchis León\.gradle\caches\transforms-3\316e375c39e3828acb46ea2cf0860d16\transformed\appcompat-resources-1.4.1\AndroidManifest.xml:17:1-24:12
MERGED from [androidx.vectordrawable:vectordrawable-animated:1.1.0] C:\Users\Hugo Sanchis León\.gradle\caches\transforms-3\56851628974c5e308efd72f95b3a4f92\transformed\vectordrawable-animated-1.1.0\AndroidManifest.xml:17:1-24:12
MERGED from [androidx.vectordrawable:vectordrawable:1.1.0] C:\Users\Hugo Sanchis León\.gradle\caches\transforms-3\0ce48a9487f8ed650ca2357cf1d6d480\transformed\vectordrawable-1.1.0\AndroidManifest.xml:17:1-24:12
MERGED from [androidx.emoji2:emoji2-views-helper:1.0.0] C:\Users\Hugo Sanchis León\.gradle\caches\transforms-3\b09511af7c11ac1cfadd8b58eb575bf1\transformed\emoji2-views-helper-1.0.0\AndroidManifest.xml:17:1-24:12
MERGED from [androidx.emoji2:emoji2:1.0.0] C:\Users\Hugo Sanchis León\.gradle\caches\transforms-3\639c98c02fc8f854f5b064ecfa0cd27f\transformed\emoji2-1.0.0\AndroidManifest.xml:17:1-37:12
MERGED from [androidx.autofill:autofill:1.0.0] C:\Users\Hugo Sanchis León\.gradle\caches\transforms-3\062e8f44751d822e504ad1b217a16982\transformed\autofill-1.0.0\AndroidManifest.xml:17:1-24:12
MERGED from [androidx.recyclerview:recyclerview:1.1.0] C:\Users\Hugo Sanchis León\.gradle\caches\transforms-3\1f5c97f44adc4bc9831994cd51be58a1\transformed\recyclerview-1.1.0\AndroidManifest.xml:17:1-24:12
MERGED from [androidx.viewpager:viewpager:1.0.0] C:\Users\Hugo Sanchis León\.gradle\caches\transforms-3\651ab047d1d460d2a2ed1d6bfbb88341\transformed\viewpager-1.0.0\AndroidManifest.xml:17:1-22:12
MERGED from [androidx.customview:customview:1.1.0] C:\Users\Hugo Sanchis León\.gradle\caches\transforms-3\e8cec16d9d0d509f1687f69655abf13c\transformed\customview-1.1.0\AndroidManifest.xml:17:1-24:12
MERGED from [androidx.core:core:1.9.0] C:\Users\Hugo Sanchis León\.gradle\caches\transforms-3\1abb5cd11afee5d13961a9bdaabfec71\transformed\core-1.9.0\AndroidManifest.xml:17:1-30:12
MERGED from [androidx.customview:customview-poolingcontainer:1.0.0] C:\Users\Hugo Sanchis León\.gradle\caches\transforms-3\fc00679f4decac1226a2cce2dde80dbd\transformed\customview-poolingcontainer-1.0.0\AndroidManifest.xml:17:1-23:12
MERGED from [androidx.core:core-ktx:1.9.0] C:\Users\Hugo Sanchis León\.gradle\caches\transforms-3\0023ff9cbb3ddc5684e05108db219603\transformed\core-ktx-1.9.0\AndroidManifest.xml:2:1-7:12
MERGED from [androidx.compose.ui:ui-util:1.3.3] C:\Users\Hugo Sanchis León\.gradle\caches\transforms-3\73765d3278957b15d2c620ce5d9883b4\transformed\ui-util-1.3.3\AndroidManifest.xml:17:1-22:12
MERGED from [androidx.cardview:cardview:1.0.0] C:\Users\Hugo Sanchis León\.gradle\caches\transforms-3\c7279c2693c8311f829d8b4991c6d5fd\transformed\cardview-1.0.0\AndroidManifest.xml:17:1-22:12
MERGED from [androidx.lifecycle:lifecycle-process:2.4.0] C:\Users\Hugo Sanchis León\.gradle\caches\transforms-3\c2db34b1f4cb8e9b7a594c349409428b\transformed\lifecycle-process-2.4.0\AndroidManifest.xml:17:1-37:12
MERGED from [androidx.lifecycle:lifecycle-runtime:2.5.1] C:\Users\Hugo Sanchis León\.gradle\caches\transforms-3\b9def90f9501a9fcb04aa26c88131aa7\transformed\lifecycle-runtime-2.5.1\AndroidManifest.xml:17:1-24:12
MERGED from [androidx.savedstate:savedstate-ktx:1.2.0] C:\Users\Hugo Sanchis León\.gradle\caches\transforms-3\d34c791b730a90dcc8a9a863cf7f4060\transformed\savedstate-ktx-1.2.0\AndroidManifest.xml:17:1-24:12
MERGED from [androidx.savedstate:savedstate:1.2.0] C:\Users\Hugo Sanchis León\.gradle\caches\transforms-3\55110b4af5c88423ac47535030f6b856\transformed\savedstate-1.2.0\AndroidManifest.xml:17:1-24:12
MERGED from [androidx.lifecycle:lifecycle-livedata:2.0.0] C:\Users\Hugo Sanchis León\.gradle\caches\transforms-3\cab922772f6e1ce6d659b08eb96f5fd2\transformed\lifecycle-livedata-2.0.0\AndroidManifest.xml:17:1-22:12
MERGED from [androidx.lifecycle:lifecycle-livedata-core:2.5.1] C:\Users\Hugo Sanchis León\.gradle\caches\transforms-3\b550822bc7b1a4dc197bcf8065cdc34d\transformed\lifecycle-livedata-core-2.5.1\AndroidManifest.xml:17:1-24:12
MERGED from [androidx.cursoradapter:cursoradapter:1.0.0] C:\Users\Hugo Sanchis León\.gradle\caches\transforms-3\134a61c38e18bb915b044463beef07f6\transformed\cursoradapter-1.0.0\AndroidManifest.xml:17:1-22:12
MERGED from [androidx.profileinstaller:profileinstaller:1.2.0] C:\Users\Hugo Sanchis León\.gradle\caches\transforms-3\a7f3d83692cacc61d27ddf21c234f4f7\transformed\profileinstaller-1.2.0\AndroidManifest.xml:17:1-50:12
MERGED from [androidx.versionedparcelable:versionedparcelable:1.1.1] C:\Users\Hugo Sanchis León\.gradle\caches\transforms-3\5cb87711e663d94063e50cd5496748dd\transformed\versionedparcelable-1.1.1\AndroidManifest.xml:17:1-27:12
MERGED from [androidx.arch.core:core-runtime:2.1.0] C:\Users\Hugo Sanchis León\.gradle\caches\transforms-3\cfde3a2dc789e581faba5af0f05021a9\transformed\core-runtime-2.1.0\AndroidManifest.xml:17:1-24:12
MERGED from [androidx.startup:startup-runtime:1.1.1] C:\Users\Hugo Sanchis León\.gradle\caches\transforms-3\60f61993629506ea52e241c4714340f8\transformed\startup-runtime-1.1.1\AndroidManifest.xml:17:1-33:12
MERGED from [androidx.documentfile:documentfile:1.0.0] C:\Users\Hugo Sanchis León\.gradle\caches\transforms-3\0518b0f9fa022fddc03d626a70966d2a\transformed\documentfile-1.0.0\AndroidManifest.xml:17:1-22:12
MERGED from [androidx.localbroadcastmanager:localbroadcastmanager:1.0.0] C:\Users\Hugo Sanchis León\.gradle\caches\transforms-3\e75be85f9110b0facfe16b7c61d43e43\transformed\localbroadcastmanager-1.0.0\AndroidManifest.xml:17:1-22:12
MERGED from [androidx.print:print:1.0.0] C:\Users\Hugo Sanchis León\.gradle\caches\transforms-3\24b0f0817188dac89b31b58f44df5fce\transformed\print-1.0.0\AndroidManifest.xml:17:1-22:12
MERGED from [androidx.tracing:tracing:1.0.0] C:\Users\Hugo Sanchis León\.gradle\caches\transforms-3\3f2a4bef6507f4128173c5cd13b48a5e\transformed\tracing-1.0.0\AndroidManifest.xml:17:1-24:12
MERGED from [androidx.interpolator:interpolator:1.0.0] C:\Users\Hugo Sanchis León\.gradle\caches\transforms-3\d47150e517a5e93bb18204740f0831b1\transformed\interpolator-1.0.0\AndroidManifest.xml:17:1-22:12
MERGED from [androidx.annotation:annotation-experimental:1.3.0] C:\Users\Hugo Sanchis León\.gradle\caches\transforms-3\e3d7ad6f35baccba88b2af06ce6c497b\transformed\annotation-experimental-1.3.0\AndroidManifest.xml:17:1-22:12
INJECTED from F:\Estudios\DAMv\2n\M08\Android-Projects\GitData\Example1\ComposeTrainingAffirmations\app\src\main\AndroidManifest.xml:2:1-32:12
INJECTED from F:\Estudios\DAMv\2n\M08\Android-Projects\GitData\Example1\ComposeTrainingAffirmations\app\src\main\AndroidManifest.xml:2:1-32:12
INJECTED from F:\Estudios\DAMv\2n\M08\Android-Projects\GitData\Example1\ComposeTrainingAffirmations\app\src\main\AndroidManifest.xml:2:1-32:12
	package
		ADDED from F:\Estudios\DAMv\2n\M08\Android-Projects\GitData\Example1\ComposeTrainingAffirmations\app\src\main\AndroidManifest.xml:3:5-39
		INJECTED from F:\Estudios\DAMv\2n\M08\Android-Projects\GitData\Example1\ComposeTrainingAffirmations\app\src\main\AndroidManifest.xml
		INJECTED from F:\Estudios\DAMv\2n\M08\Android-Projects\GitData\Example1\ComposeTrainingAffirmations\app\src\main\AndroidManifest.xml
	android:versionName
		INJECTED from F:\Estudios\DAMv\2n\M08\Android-Projects\GitData\Example1\ComposeTrainingAffirmations\app\src\main\AndroidManifest.xml
		ADDED from F:\Estudios\DAMv\2n\M08\Android-Projects\GitData\Example1\ComposeTrainingAffirmations\app\src\main\AndroidManifest.xml:2:1-32:12
		INJECTED from F:\Estudios\DAMv\2n\M08\Android-Projects\GitData\Example1\ComposeTrainingAffirmations\app\src\main\AndroidManifest.xml
	android:versionCode
		INJECTED from F:\Estudios\DAMv\2n\M08\Android-Projects\GitData\Example1\ComposeTrainingAffirmations\app\src\main\AndroidManifest.xml
		ADDED from F:\Estudios\DAMv\2n\M08\Android-Projects\GitData\Example1\ComposeTrainingAffirmations\app\src\main\AndroidManifest.xml:2:1-32:12
		INJECTED from F:\Estudios\DAMv\2n\M08\Android-Projects\GitData\Example1\ComposeTrainingAffirmations\app\src\main\AndroidManifest.xml
	xmlns:android
		ADDED from F:\Estudios\DAMv\2n\M08\Android-Projects\GitData\Example1\ComposeTrainingAffirmations\app\src\main\AndroidManifest.xml:2:11-69
application
ADDED from F:\Estudios\DAMv\2n\M08\Android-Projects\GitData\Example1\ComposeTrainingAffirmations\app\src\main\AndroidManifest.xml:5:5-30:19
MERGED from [androidx.compose.ui:ui-tooling:1.3.3] C:\Users\Hugo Sanchis León\.gradle\caches\transforms-3\c3199c328fd778b34148698ef5a27f5c\transformed\ui-tooling-1.3.3\AndroidManifest.xml:22:5-26:19
MERGED from [androidx.compose.ui:ui-tooling:1.3.3] C:\Users\Hugo Sanchis León\.gradle\caches\transforms-3\c3199c328fd778b34148698ef5a27f5c\transformed\ui-tooling-1.3.3\AndroidManifest.xml:22:5-26:19
MERGED from [com.google.android.material:material:1.6.0] C:\Users\Hugo Sanchis León\.gradle\caches\transforms-3\c14179c02910a23af6f77ba66d2c00d2\transformed\material-1.6.0\AndroidManifest.xml:24:5-20
MERGED from [com.google.android.material:material:1.6.0] C:\Users\Hugo Sanchis León\.gradle\caches\transforms-3\c14179c02910a23af6f77ba66d2c00d2\transformed\material-1.6.0\AndroidManifest.xml:24:5-20
MERGED from [androidx.constraintlayout:constraintlayout:2.1.3] C:\Users\Hugo Sanchis León\.gradle\caches\transforms-3\17f76ce8bd57548492400a822f4643dd\transformed\constraintlayout-2.1.3\AndroidManifest.xml:9:5-20
MERGED from [androidx.constraintlayout:constraintlayout:2.1.3] C:\Users\Hugo Sanchis León\.gradle\caches\transforms-3\17f76ce8bd57548492400a822f4643dd\transformed\constraintlayout-2.1.3\AndroidManifest.xml:9:5-20
MERGED from [androidx.emoji2:emoji2:1.0.0] C:\Users\Hugo Sanchis León\.gradle\caches\transforms-3\639c98c02fc8f854f5b064ecfa0cd27f\transformed\emoji2-1.0.0\AndroidManifest.xml:25:5-35:19
MERGED from [androidx.emoji2:emoji2:1.0.0] C:\Users\Hugo Sanchis León\.gradle\caches\transforms-3\639c98c02fc8f854f5b064ecfa0cd27f\transformed\emoji2-1.0.0\AndroidManifest.xml:25:5-35:19
MERGED from [androidx.core:core:1.9.0] C:\Users\Hugo Sanchis León\.gradle\caches\transforms-3\1abb5cd11afee5d13961a9bdaabfec71\transformed\core-1.9.0\AndroidManifest.xml:28:5-89
MERGED from [androidx.core:core:1.9.0] C:\Users\Hugo Sanchis León\.gradle\caches\transforms-3\1abb5cd11afee5d13961a9bdaabfec71\transformed\core-1.9.0\AndroidManifest.xml:28:5-89
MERGED from [androidx.lifecycle:lifecycle-process:2.4.0] C:\Users\Hugo Sanchis León\.gradle\caches\transforms-3\c2db34b1f4cb8e9b7a594c349409428b\transformed\lifecycle-process-2.4.0\AndroidManifest.xml:25:5-35:19
MERGED from [androidx.lifecycle:lifecycle-process:2.4.0] C:\Users\Hugo Sanchis León\.gradle\caches\transforms-3\c2db34b1f4cb8e9b7a594c349409428b\transformed\lifecycle-process-2.4.0\AndroidManifest.xml:25:5-35:19
MERGED from [androidx.profileinstaller:profileinstaller:1.2.0] C:\Users\Hugo Sanchis León\.gradle\caches\transforms-3\a7f3d83692cacc61d27ddf21c234f4f7\transformed\profileinstaller-1.2.0\AndroidManifest.xml:24:5-48:19
MERGED from [androidx.profileinstaller:profileinstaller:1.2.0] C:\Users\Hugo Sanchis León\.gradle\caches\transforms-3\a7f3d83692cacc61d27ddf21c234f4f7\transformed\profileinstaller-1.2.0\AndroidManifest.xml:24:5-48:19
MERGED from [androidx.versionedparcelable:versionedparcelable:1.1.1] C:\Users\Hugo Sanchis León\.gradle\caches\transforms-3\5cb87711e663d94063e50cd5496748dd\transformed\versionedparcelable-1.1.1\AndroidManifest.xml:24:5-25:19
MERGED from [androidx.versionedparcelable:versionedparcelable:1.1.1] C:\Users\Hugo Sanchis León\.gradle\caches\transforms-3\5cb87711e663d94063e50cd5496748dd\transformed\versionedparcelable-1.1.1\AndroidManifest.xml:24:5-25:19
MERGED from [androidx.startup:startup-runtime:1.1.1] C:\Users\Hugo Sanchis León\.gradle\caches\transforms-3\60f61993629506ea52e241c4714340f8\transformed\startup-runtime-1.1.1\AndroidManifest.xml:25:5-31:19
MERGED from [androidx.startup:startup-runtime:1.1.1] C:\Users\Hugo Sanchis León\.gradle\caches\transforms-3\60f61993629506ea52e241c4714340f8\transformed\startup-runtime-1.1.1\AndroidManifest.xml:25:5-31:19
	android:appComponentFactory
		ADDED from [androidx.core:core:1.9.0] C:\Users\Hugo Sanchis León\.gradle\caches\transforms-3\1abb5cd11afee5d13961a9bdaabfec71\transformed\core-1.9.0\AndroidManifest.xml:28:18-86
	android:supportsRtl
		ADDED from F:\Estudios\DAMv\2n\M08\Android-Projects\GitData\Example1\ComposeTrainingAffirmations\app\src\main\AndroidManifest.xml:10:9-35
	android:label
		ADDED from F:\Estudios\DAMv\2n\M08\Android-Projects\GitData\Example1\ComposeTrainingAffirmations\app\src\main\AndroidManifest.xml:8:9-41
	android:roundIcon
		ADDED from F:\Estudios\DAMv\2n\M08\Android-Projects\GitData\Example1\ComposeTrainingAffirmations\app\src\main\AndroidManifest.xml:9:9-54
	android:icon
		ADDED from F:\Estudios\DAMv\2n\M08\Android-Projects\GitData\Example1\ComposeTrainingAffirmations\app\src\main\AndroidManifest.xml:7:9-43
	android:allowBackup
		ADDED from F:\Estudios\DAMv\2n\M08\Android-Projects\GitData\Example1\ComposeTrainingAffirmations\app\src\main\AndroidManifest.xml:6:9-35
	android:theme
		ADDED from F:\Estudios\DAMv\2n\M08\Android-Projects\GitData\Example1\ComposeTrainingAffirmations\app\src\main\AndroidManifest.xml:11:9-50
activity#com.example.affirmations.DetailActivity
ADDED from F:\Estudios\DAMv\2n\M08\Android-Projects\GitData\Example1\ComposeTrainingAffirmations\app\src\main\AndroidManifest.xml:12:9-18:20
	android:exported
		ADDED from F:\Estudios\DAMv\2n\M08\Android-Projects\GitData\Example1\ComposeTrainingAffirmations\app\src\main\AndroidManifest.xml:14:13-37
	android:name
		ADDED from F:\Estudios\DAMv\2n\M08\Android-Projects\GitData\Example1\ComposeTrainingAffirmations\app\src\main\AndroidManifest.xml:13:13-43
meta-data#android.app.lib_name
ADDED from F:\Estudios\DAMv\2n\M08\Android-Projects\GitData\Example1\ComposeTrainingAffirmations\app\src\main\AndroidManifest.xml:15:13-17:36
	android:value
		ADDED from F:\Estudios\DAMv\2n\M08\Android-Projects\GitData\Example1\ComposeTrainingAffirmations\app\src\main\AndroidManifest.xml:17:17-33
	android:name
		ADDED from F:\Estudios\DAMv\2n\M08\Android-Projects\GitData\Example1\ComposeTrainingAffirmations\app\src\main\AndroidManifest.xml:16:17-52
activity#com.example.affirmations.MainActivity
ADDED from F:\Estudios\DAMv\2n\M08\Android-Projects\GitData\Example1\ComposeTrainingAffirmations\app\src\main\AndroidManifest.xml:19:9-29:20
	android:label
		ADDED from F:\Estudios\DAMv\2n\M08\Android-Projects\GitData\Example1\ComposeTrainingAffirmations\app\src\main\AndroidManifest.xml:22:13-45
	android:exported
		ADDED from F:\Estudios\DAMv\2n\M08\Android-Projects\GitData\Example1\ComposeTrainingAffirmations\app\src\main\AndroidManifest.xml:21:13-36
	android:theme
		ADDED from F:\Estudios\DAMv\2n\M08\Android-Projects\GitData\Example1\ComposeTrainingAffirmations\app\src\main\AndroidManifest.xml:23:13-54
	android:name
		ADDED from F:\Estudios\DAMv\2n\M08\Android-Projects\GitData\Example1\ComposeTrainingAffirmations\app\src\main\AndroidManifest.xml:20:13-41
intent-filter#action:name:android.intent.action.MAIN+category:name:android.intent.category.LAUNCHER
ADDED from F:\Estudios\DAMv\2n\M08\Android-Projects\GitData\Example1\ComposeTrainingAffirmations\app\src\main\AndroidManifest.xml:24:13-28:29
action#android.intent.action.MAIN
ADDED from F:\Estudios\DAMv\2n\M08\Android-Projects\GitData\Example1\ComposeTrainingAffirmations\app\src\main\AndroidManifest.xml:25:17-69
	android:name
		ADDED from F:\Estudios\DAMv\2n\M08\Android-Projects\GitData\Example1\ComposeTrainingAffirmations\app\src\main\AndroidManifest.xml:25:25-66
category#android.intent.category.LAUNCHER
ADDED from F:\Estudios\DAMv\2n\M08\Android-Projects\GitData\Example1\ComposeTrainingAffirmations\app\src\main\AndroidManifest.xml:27:17-77
	android:name
		ADDED from F:\Estudios\DAMv\2n\M08\Android-Projects\GitData\Example1\ComposeTrainingAffirmations\app\src\main\AndroidManifest.xml:27:27-74
uses-sdk
INJECTED from F:\Estudios\DAMv\2n\M08\Android-Projects\GitData\Example1\ComposeTrainingAffirmations\app\src\main\AndroidManifest.xml reason: use-sdk injection requested
INJECTED from F:\Estudios\DAMv\2n\M08\Android-Projects\GitData\Example1\ComposeTrainingAffirmations\app\src\main\AndroidManifest.xml
INJECTED from F:\Estudios\DAMv\2n\M08\Android-Projects\GitData\Example1\ComposeTrainingAffirmations\app\src\main\AndroidManifest.xml
MERGED from [androidx.compose.ui:ui-tooling:1.3.3] C:\Users\Hugo Sanchis León\.gradle\caches\transforms-3\c3199c328fd778b34148698ef5a27f5c\transformed\ui-tooling-1.3.3\AndroidManifest.xml:20:5-44
MERGED from [androidx.compose.ui:ui-tooling:1.3.3] C:\Users\Hugo Sanchis León\.gradle\caches\transforms-3\c3199c328fd778b34148698ef5a27f5c\transformed\ui-tooling-1.3.3\AndroidManifest.xml:20:5-44
MERGED from [androidx.activity:activity-compose:1.6.1] C:\Users\Hugo Sanchis León\.gradle\caches\transforms-3\21613ff9798afbe96fc325717b5d2cd9\transformed\activity-compose-1.6.1\AndroidManifest.xml:20:5-44
MERGED from [androidx.activity:activity-compose:1.6.1] C:\Users\Hugo Sanchis León\.gradle\caches\transforms-3\21613ff9798afbe96fc325717b5d2cd9\transformed\activity-compose-1.6.1\AndroidManifest.xml:20:5-44
MERGED from [androidx.compose.material:material:1.3.1] C:\Users\Hugo Sanchis León\.gradle\caches\transforms-3\16c762070fc05c6ea42581d434ce85ff\transformed\material-1.3.1\AndroidManifest.xml:20:5-44
MERGED from [androidx.compose.material:material:1.3.1] C:\Users\Hugo Sanchis León\.gradle\caches\transforms-3\16c762070fc05c6ea42581d434ce85ff\transformed\material-1.3.1\AndroidManifest.xml:20:5-44
MERGED from [androidx.compose.material:material-ripple:1.3.1] C:\Users\Hugo Sanchis León\.gradle\caches\transforms-3\6b2d7237cc8b096123e01a24f86324a3\transformed\material-ripple-1.3.1\AndroidManifest.xml:20:5-44
MERGED from [androidx.compose.material:material-ripple:1.3.1] C:\Users\Hugo Sanchis León\.gradle\caches\transforms-3\6b2d7237cc8b096123e01a24f86324a3\transformed\material-ripple-1.3.1\AndroidManifest.xml:20:5-44
MERGED from [androidx.compose.foundation:foundation:1.3.1] C:\Users\Hugo Sanchis León\.gradle\caches\transforms-3\5f2d19add301ba246a90e2c063acaa26\transformed\foundation-1.3.1\AndroidManifest.xml:20:5-44
MERGED from [androidx.compose.foundation:foundation:1.3.1] C:\Users\Hugo Sanchis León\.gradle\caches\transforms-3\5f2d19add301ba246a90e2c063acaa26\transformed\foundation-1.3.1\AndroidManifest.xml:20:5-44
MERGED from [androidx.compose.animation:animation:1.3.3] C:\Users\Hugo Sanchis León\.gradle\caches\transforms-3\a6998fdb4dc636927988f9ff623566e2\transformed\animation-1.3.3\AndroidManifest.xml:20:5-44
MERGED from [androidx.compose.animation:animation:1.3.3] C:\Users\Hugo Sanchis León\.gradle\caches\transforms-3\a6998fdb4dc636927988f9ff623566e2\transformed\animation-1.3.3\AndroidManifest.xml:20:5-44
MERGED from [androidx.compose.foundation:foundation-layout:1.3.1] C:\Users\Hugo Sanchis León\.gradle\caches\transforms-3\04e9a7a7516b7b770e9d1aed94325ca9\transformed\foundation-layout-1.3.1\AndroidManifest.xml:20:5-44
MERGED from [androidx.compose.foundation:foundation-layout:1.3.1] C:\Users\Hugo Sanchis León\.gradle\caches\transforms-3\04e9a7a7516b7b770e9d1aed94325ca9\transformed\foundation-layout-1.3.1\AndroidManifest.xml:20:5-44
MERGED from [androidx.compose.animation:animation-core:1.3.3] C:\Users\Hugo Sanchis León\.gradle\caches\transforms-3\9d2e64123f828b74c43839ff52de8fd7\transformed\animation-core-1.3.3\AndroidManifest.xml:20:5-44
MERGED from [androidx.compose.animation:animation-core:1.3.3] C:\Users\Hugo Sanchis León\.gradle\caches\transforms-3\9d2e64123f828b74c43839ff52de8fd7\transformed\animation-core-1.3.3\AndroidManifest.xml:20:5-44
MERGED from [androidx.compose.material:material-icons-core:1.3.1] C:\Users\Hugo Sanchis León\.gradle\caches\transforms-3\cf00e3d4650e2ada1949ff4c33fabe68\transformed\material-icons-core-1.3.1\AndroidManifest.xml:20:5-44
MERGED from [androidx.compose.material:material-icons-core:1.3.1] C:\Users\Hugo Sanchis León\.gradle\caches\transforms-3\cf00e3d4650e2ada1949ff4c33fabe68\transformed\material-icons-core-1.3.1\AndroidManifest.xml:20:5-44
MERGED from [androidx.compose.ui:ui-tooling-data:1.3.3] C:\Users\Hugo Sanchis León\.gradle\caches\transforms-3\e0ff635cdf776c0a107f0505e9181a3c\transformed\ui-tooling-data-1.3.3\AndroidManifest.xml:20:5-44
MERGED from [androidx.compose.ui:ui-tooling-data:1.3.3] C:\Users\Hugo Sanchis León\.gradle\caches\transforms-3\e0ff635cdf776c0a107f0505e9181a3c\transformed\ui-tooling-data-1.3.3\AndroidManifest.xml:20:5-44
MERGED from [androidx.compose.ui:ui:1.3.3] C:\Users\Hugo Sanchis León\.gradle\caches\transforms-3\52b45868cf99d047206d668a91b0a426\transformed\ui-1.3.3\AndroidManifest.xml:20:5-44
MERGED from [androidx.compose.ui:ui:1.3.3] C:\Users\Hugo Sanchis León\.gradle\caches\transforms-3\52b45868cf99d047206d668a91b0a426\transformed\ui-1.3.3\AndroidManifest.xml:20:5-44
MERGED from [com.google.android.material:material:1.6.0] C:\Users\Hugo Sanchis León\.gradle\caches\transforms-3\c14179c02910a23af6f77ba66d2c00d2\transformed\material-1.6.0\AndroidManifest.xml:20:5-22:41
MERGED from [com.google.android.material:material:1.6.0] C:\Users\Hugo Sanchis León\.gradle\caches\transforms-3\c14179c02910a23af6f77ba66d2c00d2\transformed\material-1.6.0\AndroidManifest.xml:20:5-22:41
MERGED from [androidx.constraintlayout:constraintlayout:2.1.3] C:\Users\Hugo Sanchis León\.gradle\caches\transforms-3\17f76ce8bd57548492400a822f4643dd\transformed\constraintlayout-2.1.3\AndroidManifest.xml:5:5-7:41
MERGED from [androidx.constraintlayout:constraintlayout:2.1.3] C:\Users\Hugo Sanchis León\.gradle\caches\transforms-3\17f76ce8bd57548492400a822f4643dd\transformed\constraintlayout-2.1.3\AndroidManifest.xml:5:5-7:41
MERGED from [androidx.appcompat:appcompat:1.4.1] C:\Users\Hugo Sanchis León\.gradle\caches\transforms-3\9fd771c07f505c63db2b98da870d264c\transformed\appcompat-1.4.1\AndroidManifest.xml:20:5-22:41
MERGED from [androidx.appcompat:appcompat:1.4.1] C:\Users\Hugo Sanchis León\.gradle\caches\transforms-3\9fd771c07f505c63db2b98da870d264c\transformed\appcompat-1.4.1\AndroidManifest.xml:20:5-22:41
MERGED from [androidx.viewpager2:viewpager2:1.0.0] C:\Users\Hugo Sanchis León\.gradle\caches\transforms-3\530f195b1fa1b2ab98a0b2be2a44830e\transformed\viewpager2-1.0.0\AndroidManifest.xml:20:5-22:41
MERGED from [androidx.viewpager2:viewpager2:1.0.0] C:\Users\Hugo Sanchis León\.gradle\caches\transforms-3\530f195b1fa1b2ab98a0b2be2a44830e\transformed\viewpager2-1.0.0\AndroidManifest.xml:20:5-22:41
MERGED from [androidx.fragment:fragment:1.3.6] C:\Users\Hugo Sanchis León\.gradle\caches\transforms-3\9a253c2837bcb19150d26f84dfb17bd1\transformed\fragment-1.3.6\AndroidManifest.xml:20:5-22:41
MERGED from [androidx.fragment:fragment:1.3.6] C:\Users\Hugo Sanchis León\.gradle\caches\transforms-3\9a253c2837bcb19150d26f84dfb17bd1\transformed\fragment-1.3.6\AndroidManifest.xml:20:5-22:41
MERGED from [androidx.activity:activity:1.6.1] C:\Users\Hugo Sanchis León\.gradle\caches\transforms-3\9438d3230e9d46676bab40993d198faf\transformed\activity-1.6.1\AndroidManifest.xml:20:5-44
MERGED from [androidx.activity:activity:1.6.1] C:\Users\Hugo Sanchis León\.gradle\caches\transforms-3\9438d3230e9d46676bab40993d198faf\transformed\activity-1.6.1\AndroidManifest.xml:20:5-44
MERGED from [androidx.activity:activity-ktx:1.6.1] C:\Users\Hugo Sanchis León\.gradle\caches\transforms-3\ea2196d81e6a28f33588e5af28f7d1e1\transformed\activity-ktx-1.6.1\AndroidManifest.xml:20:5-44
MERGED from [androidx.activity:activity-ktx:1.6.1] C:\Users\Hugo Sanchis León\.gradle\caches\transforms-3\ea2196d81e6a28f33588e5af28f7d1e1\transformed\activity-ktx-1.6.1\AndroidManifest.xml:20:5-44
MERGED from [androidx.lifecycle:lifecycle-runtime-ktx:2.5.1] C:\Users\Hugo Sanchis León\.gradle\caches\transforms-3\27a778a7f895a17047fd1c28e4e92f05\transformed\lifecycle-runtime-ktx-2.5.1\AndroidManifest.xml:20:5-22:41
MERGED from [androidx.lifecycle:lifecycle-runtime-ktx:2.5.1] C:\Users\Hugo Sanchis León\.gradle\caches\transforms-3\27a778a7f895a17047fd1c28e4e92f05\transformed\lifecycle-runtime-ktx-2.5.1\AndroidManifest.xml:20:5-22:41
MERGED from [androidx.compose.ui:ui-tooling-preview:1.3.3] C:\Users\Hugo Sanchis León\.gradle\caches\transforms-3\a5b18e53e99a13acab392c7b94aebe75\transformed\ui-tooling-preview-1.3.3\AndroidManifest.xml:20:5-44
MERGED from [androidx.compose.ui:ui-tooling-preview:1.3.3] C:\Users\Hugo Sanchis León\.gradle\caches\transforms-3\a5b18e53e99a13acab392c7b94aebe75\transformed\ui-tooling-preview-1.3.3\AndroidManifest.xml:20:5-44
MERGED from [androidx.compose.ui:ui-text:1.3.3] C:\Users\Hugo Sanchis León\.gradle\caches\transforms-3\ca694a388762432396ed10d67755a221\transformed\ui-text-1.3.3\AndroidManifest.xml:20:5-44
MERGED from [androidx.compose.ui:ui-text:1.3.3] C:\Users\Hugo Sanchis León\.gradle\caches\transforms-3\ca694a388762432396ed10d67755a221\transformed\ui-text-1.3.3\AndroidManifest.xml:20:5-44
MERGED from [androidx.compose.runtime:runtime-saveable:1.3.3] C:\Users\Hugo Sanchis León\.gradle\caches\transforms-3\e4d505e2eef4e37013d957e4b9f3b572\transformed\runtime-saveable-1.3.3\AndroidManifest.xml:20:5-44
MERGED from [androidx.compose.runtime:runtime-saveable:1.3.3] C:\Users\Hugo Sanchis León\.gradle\caches\transforms-3\e4d505e2eef4e37013d957e4b9f3b572\transformed\runtime-saveable-1.3.3\AndroidManifest.xml:20:5-44
MERGED from [androidx.compose.ui:ui-graphics:1.3.3] C:\Users\Hugo Sanchis León\.gradle\caches\transforms-3\8f2b106fea21316623ce4b2eb57189e1\transformed\ui-graphics-1.3.3\AndroidManifest.xml:20:5-44
MERGED from [androidx.compose.ui:ui-graphics:1.3.3] C:\Users\Hugo Sanchis León\.gradle\caches\transforms-3\8f2b106fea21316623ce4b2eb57189e1\transformed\ui-graphics-1.3.3\AndroidManifest.xml:20:5-44
MERGED from [androidx.compose.ui:ui-unit:1.3.3] C:\Users\Hugo Sanchis León\.gradle\caches\transforms-3\7b478581cfd9117d8c46cc718ea84483\transformed\ui-unit-1.3.3\AndroidManifest.xml:20:5-44
MERGED from [androidx.compose.ui:ui-unit:1.3.3] C:\Users\Hugo Sanchis León\.gradle\caches\transforms-3\7b478581cfd9117d8c46cc718ea84483\transformed\ui-unit-1.3.3\AndroidManifest.xml:20:5-44
MERGED from [androidx.compose.ui:ui-geometry:1.3.3] C:\Users\Hugo Sanchis León\.gradle\caches\transforms-3\84be76559d4407832e6a96eb3fd05e84\transformed\ui-geometry-1.3.3\AndroidManifest.xml:20:5-44
MERGED from [androidx.compose.ui:ui-geometry:1.3.3] C:\Users\Hugo Sanchis León\.gradle\caches\transforms-3\84be76559d4407832e6a96eb3fd05e84\transformed\ui-geometry-1.3.3\AndroidManifest.xml:20:5-44
MERGED from [androidx.compose.runtime:runtime:1.3.3] C:\Users\Hugo Sanchis León\.gradle\caches\transforms-3\5820fbc5f0a07c31e1c99c597eb72279\transformed\runtime-1.3.3\AndroidManifest.xml:20:5-44
MERGED from [androidx.compose.runtime:runtime:1.3.3] C:\Users\Hugo Sanchis León\.gradle\caches\transforms-3\5820fbc5f0a07c31e1c99c597eb72279\transformed\runtime-1.3.3\AndroidManifest.xml:20:5-44
MERGED from [androidx.lifecycle:lifecycle-viewmodel-ktx:2.5.1] C:\Users\Hugo Sanchis León\.gradle\caches\transforms-3\45fd1ceae068762f4188254acd09cbe8\transformed\lifecycle-viewmodel-ktx-2.5.1\AndroidManifest.xml:20:5-22:41
MERGED from [androidx.lifecycle:lifecycle-viewmodel-ktx:2.5.1] C:\Users\Hugo Sanchis León\.gradle\caches\transforms-3\45fd1ceae068762f4188254acd09cbe8\transformed\lifecycle-viewmodel-ktx-2.5.1\AndroidManifest.xml:20:5-22:41
MERGED from [androidx.dynamicanimation:dynamicanimation:1.0.0] C:\Users\Hugo Sanchis León\.gradle\caches\transforms-3\cf107da67373cb53798ab12d9a0be666\transformed\dynamicanimation-1.0.0\AndroidManifest.xml:20:5-44
MERGED from [androidx.dynamicanimation:dynamicanimation:1.0.0] C:\Users\Hugo Sanchis León\.gradle\caches\transforms-3\cf107da67373cb53798ab12d9a0be666\transformed\dynamicanimation-1.0.0\AndroidManifest.xml:20:5-44
MERGED from [androidx.legacy:legacy-support-core-utils:1.0.0] C:\Users\Hugo Sanchis León\.gradle\caches\transforms-3\f34cdcab3a89a1b24611014588c6832a\transformed\legacy-support-core-utils-1.0.0\AndroidManifest.xml:20:5-44
MERGED from [androidx.legacy:legacy-support-core-utils:1.0.0] C:\Users\Hugo Sanchis León\.gradle\caches\transforms-3\f34cdcab3a89a1b24611014588c6832a\transformed\legacy-support-core-utils-1.0.0\AndroidManifest.xml:20:5-44
MERGED from [androidx.loader:loader:1.0.0] C:\Users\Hugo Sanchis León\.gradle\caches\transforms-3\a0dcf140393c72bb45c8f5e7e9b53a7b\transformed\loader-1.0.0\AndroidManifest.xml:20:5-44
MERGED from [androidx.loader:loader:1.0.0] C:\Users\Hugo Sanchis León\.gradle\caches\transforms-3\a0dcf140393c72bb45c8f5e7e9b53a7b\transformed\loader-1.0.0\AndroidManifest.xml:20:5-44
MERGED from [androidx.lifecycle:lifecycle-viewmodel:2.5.1] C:\Users\Hugo Sanchis León\.gradle\caches\transforms-3\605df907327ce79960ed4955ad778d9e\transformed\lifecycle-viewmodel-2.5.1\AndroidManifest.xml:20:5-22:41
MERGED from [androidx.lifecycle:lifecycle-viewmodel:2.5.1] C:\Users\Hugo Sanchis León\.gradle\caches\transforms-3\605df907327ce79960ed4955ad778d9e\transformed\lifecycle-viewmodel-2.5.1\AndroidManifest.xml:20:5-22:41
MERGED from [androidx.lifecycle:lifecycle-viewmodel-savedstate:2.5.1] C:\Users\Hugo Sanchis León\.gradle\caches\transforms-3\78b985d00c8343041db81ec10920f706\transformed\lifecycle-viewmodel-savedstate-2.5.1\AndroidManifest.xml:20:5-22:41
MERGED from [androidx.lifecycle:lifecycle-viewmodel-savedstate:2.5.1] C:\Users\Hugo Sanchis León\.gradle\caches\transforms-3\78b985d00c8343041db81ec10920f706\transformed\lifecycle-viewmodel-savedstate-2.5.1\AndroidManifest.xml:20:5-22:41
MERGED from [androidx.coordinatorlayout:coordinatorlayout:1.1.0] C:\Users\Hugo Sanchis León\.gradle\caches\transforms-3\8fa255a5c9f064bb7d64fc390e8922da\transformed\coordinatorlayout-1.1.0\AndroidManifest.xml:20:5-22:41
MERGED from [androidx.coordinatorlayout:coordinatorlayout:1.1.0] C:\Users\Hugo Sanchis León\.gradle\caches\transforms-3\8fa255a5c9f064bb7d64fc390e8922da\transformed\coordinatorlayout-1.1.0\AndroidManifest.xml:20:5-22:41
MERGED from [androidx.drawerlayout:drawerlayout:1.1.1] C:\Users\Hugo Sanchis León\.gradle\caches\transforms-3\c146fd0a36d8ec65594e51f5d96f333f\transformed\drawerlayout-1.1.1\AndroidManifest.xml:20:5-22:41
MERGED from [androidx.drawerlayout:drawerlayout:1.1.1] C:\Users\Hugo Sanchis León\.gradle\caches\transforms-3\c146fd0a36d8ec65594e51f5d96f333f\transformed\drawerlayout-1.1.1\AndroidManifest.xml:20:5-22:41
MERGED from [androidx.transition:transition:1.2.0] C:\Users\Hugo Sanchis León\.gradle\caches\transforms-3\c03d6f10ce46c86ee9ef9a4e5ea928b0\transformed\transition-1.2.0\AndroidManifest.xml:20:5-22:41
MERGED from [androidx.transition:transition:1.2.0] C:\Users\Hugo Sanchis León\.gradle\caches\transforms-3\c03d6f10ce46c86ee9ef9a4e5ea928b0\transformed\transition-1.2.0\AndroidManifest.xml:20:5-22:41
MERGED from [androidx.appcompat:appcompat-resources:1.4.1] C:\Users\Hugo Sanchis León\.gradle\caches\transforms-3\316e375c39e3828acb46ea2cf0860d16\transformed\appcompat-resources-1.4.1\AndroidManifest.xml:20:5-22:41
MERGED from [androidx.appcompat:appcompat-resources:1.4.1] C:\Users\Hugo Sanchis León\.gradle\caches\transforms-3\316e375c39e3828acb46ea2cf0860d16\transformed\appcompat-resources-1.4.1\AndroidManifest.xml:20:5-22:41
MERGED from [androidx.vectordrawable:vectordrawable-animated:1.1.0] C:\Users\Hugo Sanchis León\.gradle\caches\transforms-3\56851628974c5e308efd72f95b3a4f92\transformed\vectordrawable-animated-1.1.0\AndroidManifest.xml:20:5-22:41
MERGED from [androidx.vectordrawable:vectordrawable-animated:1.1.0] C:\Users\Hugo Sanchis León\.gradle\caches\transforms-3\56851628974c5e308efd72f95b3a4f92\transformed\vectordrawable-animated-1.1.0\AndroidManifest.xml:20:5-22:41
MERGED from [androidx.vectordrawable:vectordrawable:1.1.0] C:\Users\Hugo Sanchis León\.gradle\caches\transforms-3\0ce48a9487f8ed650ca2357cf1d6d480\transformed\vectordrawable-1.1.0\AndroidManifest.xml:20:5-22:41
MERGED from [androidx.vectordrawable:vectordrawable:1.1.0] C:\Users\Hugo Sanchis León\.gradle\caches\transforms-3\0ce48a9487f8ed650ca2357cf1d6d480\transformed\vectordrawable-1.1.0\AndroidManifest.xml:20:5-22:41
MERGED from [androidx.emoji2:emoji2-views-helper:1.0.0] C:\Users\Hugo Sanchis León\.gradle\caches\transforms-3\b09511af7c11ac1cfadd8b58eb575bf1\transformed\emoji2-views-helper-1.0.0\AndroidManifest.xml:20:5-22:41
MERGED from [androidx.emoji2:emoji2-views-helper:1.0.0] C:\Users\Hugo Sanchis León\.gradle\caches\transforms-3\b09511af7c11ac1cfadd8b58eb575bf1\transformed\emoji2-views-helper-1.0.0\AndroidManifest.xml:20:5-22:41
MERGED from [androidx.emoji2:emoji2:1.0.0] C:\Users\Hugo Sanchis León\.gradle\caches\transforms-3\639c98c02fc8f854f5b064ecfa0cd27f\transformed\emoji2-1.0.0\AndroidManifest.xml:21:5-23:41
MERGED from [androidx.emoji2:emoji2:1.0.0] C:\Users\Hugo Sanchis León\.gradle\caches\transforms-3\639c98c02fc8f854f5b064ecfa0cd27f\transformed\emoji2-1.0.0\AndroidManifest.xml:21:5-23:41
MERGED from [androidx.autofill:autofill:1.0.0] C:\Users\Hugo Sanchis León\.gradle\caches\transforms-3\062e8f44751d822e504ad1b217a16982\transformed\autofill-1.0.0\AndroidManifest.xml:20:5-22:41
MERGED from [androidx.autofill:autofill:1.0.0] C:\Users\Hugo Sanchis León\.gradle\caches\transforms-3\062e8f44751d822e504ad1b217a16982\transformed\autofill-1.0.0\AndroidManifest.xml:20:5-22:41
MERGED from [androidx.recyclerview:recyclerview:1.1.0] C:\Users\Hugo Sanchis León\.gradle\caches\transforms-3\1f5c97f44adc4bc9831994cd51be58a1\transformed\recyclerview-1.1.0\AndroidManifest.xml:20:5-22:41
MERGED from [androidx.recyclerview:recyclerview:1.1.0] C:\Users\Hugo Sanchis León\.gradle\caches\transforms-3\1f5c97f44adc4bc9831994cd51be58a1\transformed\recyclerview-1.1.0\AndroidManifest.xml:20:5-22:41
MERGED from [androidx.viewpager:viewpager:1.0.0] C:\Users\Hugo Sanchis León\.gradle\caches\transforms-3\651ab047d1d460d2a2ed1d6bfbb88341\transformed\viewpager-1.0.0\AndroidManifest.xml:20:5-44
MERGED from [androidx.viewpager:viewpager:1.0.0] C:\Users\Hugo Sanchis León\.gradle\caches\transforms-3\651ab047d1d460d2a2ed1d6bfbb88341\transformed\viewpager-1.0.0\AndroidManifest.xml:20:5-44
MERGED from [androidx.customview:customview:1.1.0] C:\Users\Hugo Sanchis León\.gradle\caches\transforms-3\e8cec16d9d0d509f1687f69655abf13c\transformed\customview-1.1.0\AndroidManifest.xml:20:5-22:41
MERGED from [androidx.customview:customview:1.1.0] C:\Users\Hugo Sanchis León\.gradle\caches\transforms-3\e8cec16d9d0d509f1687f69655abf13c\transformed\customview-1.1.0\AndroidManifest.xml:20:5-22:41
MERGED from [androidx.core:core:1.9.0] C:\Users\Hugo Sanchis León\.gradle\caches\transforms-3\1abb5cd11afee5d13961a9bdaabfec71\transformed\core-1.9.0\AndroidManifest.xml:20:5-44
MERGED from [androidx.core:core:1.9.0] C:\Users\Hugo Sanchis León\.gradle\caches\transforms-3\1abb5cd11afee5d13961a9bdaabfec71\transformed\core-1.9.0\AndroidManifest.xml:20:5-44
MERGED from [androidx.customview:customview-poolingcontainer:1.0.0] C:\Users\Hugo Sanchis León\.gradle\caches\transforms-3\fc00679f4decac1226a2cce2dde80dbd\transformed\customview-poolingcontainer-1.0.0\AndroidManifest.xml:20:5-21:38
MERGED from [androidx.customview:customview-poolingcontainer:1.0.0] C:\Users\Hugo Sanchis León\.gradle\caches\transforms-3\fc00679f4decac1226a2cce2dde80dbd\transformed\customview-poolingcontainer-1.0.0\AndroidManifest.xml:20:5-21:38
MERGED from [androidx.core:core-ktx:1.9.0] C:\Users\Hugo Sanchis León\.gradle\caches\transforms-3\0023ff9cbb3ddc5684e05108db219603\transformed\core-ktx-1.9.0\AndroidManifest.xml:5:5-44
MERGED from [androidx.core:core-ktx:1.9.0] C:\Users\Hugo Sanchis León\.gradle\caches\transforms-3\0023ff9cbb3ddc5684e05108db219603\transformed\core-ktx-1.9.0\AndroidManifest.xml:5:5-44
MERGED from [androidx.compose.ui:ui-util:1.3.3] C:\Users\Hugo Sanchis León\.gradle\caches\transforms-3\73765d3278957b15d2c620ce5d9883b4\transformed\ui-util-1.3.3\AndroidManifest.xml:20:5-44
MERGED from [androidx.compose.ui:ui-util:1.3.3] C:\Users\Hugo Sanchis León\.gradle\caches\transforms-3\73765d3278957b15d2c620ce5d9883b4\transformed\ui-util-1.3.3\AndroidManifest.xml:20:5-44
MERGED from [androidx.cardview:cardview:1.0.0] C:\Users\Hugo Sanchis León\.gradle\caches\transforms-3\c7279c2693c8311f829d8b4991c6d5fd\transformed\cardview-1.0.0\AndroidManifest.xml:20:5-44
MERGED from [androidx.cardview:cardview:1.0.0] C:\Users\Hugo Sanchis León\.gradle\caches\transforms-3\c7279c2693c8311f829d8b4991c6d5fd\transformed\cardview-1.0.0\AndroidManifest.xml:20:5-44
MERGED from [androidx.lifecycle:lifecycle-process:2.4.0] C:\Users\Hugo Sanchis León\.gradle\caches\transforms-3\c2db34b1f4cb8e9b7a594c349409428b\transformed\lifecycle-process-2.4.0\AndroidManifest.xml:21:5-23:41
MERGED from [androidx.lifecycle:lifecycle-process:2.4.0] C:\Users\Hugo Sanchis León\.gradle\caches\transforms-3\c2db34b1f4cb8e9b7a594c349409428b\transformed\lifecycle-process-2.4.0\AndroidManifest.xml:21:5-23:41
MERGED from [androidx.lifecycle:lifecycle-runtime:2.5.1] C:\Users\Hugo Sanchis León\.gradle\caches\transforms-3\b9def90f9501a9fcb04aa26c88131aa7\transformed\lifecycle-runtime-2.5.1\AndroidManifest.xml:20:5-22:41
MERGED from [androidx.lifecycle:lifecycle-runtime:2.5.1] C:\Users\Hugo Sanchis León\.gradle\caches\transforms-3\b9def90f9501a9fcb04aa26c88131aa7\transformed\lifecycle-runtime-2.5.1\AndroidManifest.xml:20:5-22:41
MERGED from [androidx.savedstate:savedstate-ktx:1.2.0] C:\Users\Hugo Sanchis León\.gradle\caches\transforms-3\d34c791b730a90dcc8a9a863cf7f4060\transformed\savedstate-ktx-1.2.0\AndroidManifest.xml:20:5-22:41
MERGED from [androidx.savedstate:savedstate-ktx:1.2.0] C:\Users\Hugo Sanchis León\.gradle\caches\transforms-3\d34c791b730a90dcc8a9a863cf7f4060\transformed\savedstate-ktx-1.2.0\AndroidManifest.xml:20:5-22:41
MERGED from [androidx.savedstate:savedstate:1.2.0] C:\Users\Hugo Sanchis León\.gradle\caches\transforms-3\55110b4af5c88423ac47535030f6b856\transformed\savedstate-1.2.0\AndroidManifest.xml:20:5-22:41
MERGED from [androidx.savedstate:savedstate:1.2.0] C:\Users\Hugo Sanchis León\.gradle\caches\transforms-3\55110b4af5c88423ac47535030f6b856\transformed\savedstate-1.2.0\AndroidManifest.xml:20:5-22:41
MERGED from [androidx.lifecycle:lifecycle-livedata:2.0.0] C:\Users\Hugo Sanchis León\.gradle\caches\transforms-3\cab922772f6e1ce6d659b08eb96f5fd2\transformed\lifecycle-livedata-2.0.0\AndroidManifest.xml:20:5-44
MERGED from [androidx.lifecycle:lifecycle-livedata:2.0.0] C:\Users\Hugo Sanchis León\.gradle\caches\transforms-3\cab922772f6e1ce6d659b08eb96f5fd2\transformed\lifecycle-livedata-2.0.0\AndroidManifest.xml:20:5-44
MERGED from [androidx.lifecycle:lifecycle-livedata-core:2.5.1] C:\Users\Hugo Sanchis León\.gradle\caches\transforms-3\b550822bc7b1a4dc197bcf8065cdc34d\transformed\lifecycle-livedata-core-2.5.1\AndroidManifest.xml:20:5-22:41
MERGED from [androidx.lifecycle:lifecycle-livedata-core:2.5.1] C:\Users\Hugo Sanchis León\.gradle\caches\transforms-3\b550822bc7b1a4dc197bcf8065cdc34d\transformed\lifecycle-livedata-core-2.5.1\AndroidManifest.xml:20:5-22:41
MERGED from [androidx.cursoradapter:cursoradapter:1.0.0] C:\Users\Hugo Sanchis León\.gradle\caches\transforms-3\134a61c38e18bb915b044463beef07f6\transformed\cursoradapter-1.0.0\AndroidManifest.xml:20:5-44
MERGED from [androidx.cursoradapter:cursoradapter:1.0.0] C:\Users\Hugo Sanchis León\.gradle\caches\transforms-3\134a61c38e18bb915b044463beef07f6\transformed\cursoradapter-1.0.0\AndroidManifest.xml:20:5-44
MERGED from [androidx.profileinstaller:profileinstaller:1.2.0] C:\Users\Hugo Sanchis León\.gradle\caches\transforms-3\a7f3d83692cacc61d27ddf21c234f4f7\transformed\profileinstaller-1.2.0\AndroidManifest.xml:21:5-22:38
MERGED from [androidx.profileinstaller:profileinstaller:1.2.0] C:\Users\Hugo Sanchis León\.gradle\caches\transforms-3\a7f3d83692cacc61d27ddf21c234f4f7\transformed\profileinstaller-1.2.0\AndroidManifest.xml:21:5-22:38
MERGED from [androidx.versionedparcelable:versionedparcelable:1.1.1] C:\Users\Hugo Sanchis León\.gradle\caches\transforms-3\5cb87711e663d94063e50cd5496748dd\transformed\versionedparcelable-1.1.1\AndroidManifest.xml:20:5-22:41
MERGED from [androidx.versionedparcelable:versionedparcelable:1.1.1] C:\Users\Hugo Sanchis León\.gradle\caches\transforms-3\5cb87711e663d94063e50cd5496748dd\transformed\versionedparcelable-1.1.1\AndroidManifest.xml:20:5-22:41
MERGED from [androidx.arch.core:core-runtime:2.1.0] C:\Users\Hugo Sanchis León\.gradle\caches\transforms-3\cfde3a2dc789e581faba5af0f05021a9\transformed\core-runtime-2.1.0\AndroidManifest.xml:20:5-22:41
MERGED from [androidx.arch.core:core-runtime:2.1.0] C:\Users\Hugo Sanchis León\.gradle\caches\transforms-3\cfde3a2dc789e581faba5af0f05021a9\transformed\core-runtime-2.1.0\AndroidManifest.xml:20:5-22:41
MERGED from [androidx.startup:startup-runtime:1.1.1] C:\Users\Hugo Sanchis León\.gradle\caches\transforms-3\60f61993629506ea52e241c4714340f8\transformed\startup-runtime-1.1.1\AndroidManifest.xml:21:5-23:41
MERGED from [androidx.startup:startup-runtime:1.1.1] C:\Users\Hugo Sanchis León\.gradle\caches\transforms-3\60f61993629506ea52e241c4714340f8\transformed\startup-runtime-1.1.1\AndroidManifest.xml:21:5-23:41
MERGED from [androidx.documentfile:documentfile:1.0.0] C:\Users\Hugo Sanchis León\.gradle\caches\transforms-3\0518b0f9fa022fddc03d626a70966d2a\transformed\documentfile-1.0.0\AndroidManifest.xml:20:5-44
MERGED from [androidx.documentfile:documentfile:1.0.0] C:\Users\Hugo Sanchis León\.gradle\caches\transforms-3\0518b0f9fa022fddc03d626a70966d2a\transformed\documentfile-1.0.0\AndroidManifest.xml:20:5-44
MERGED from [androidx.localbroadcastmanager:localbroadcastmanager:1.0.0] C:\Users\Hugo Sanchis León\.gradle\caches\transforms-3\e75be85f9110b0facfe16b7c61d43e43\transformed\localbroadcastmanager-1.0.0\AndroidManifest.xml:20:5-44
MERGED from [androidx.localbroadcastmanager:localbroadcastmanager:1.0.0] C:\Users\Hugo Sanchis León\.gradle\caches\transforms-3\e75be85f9110b0facfe16b7c61d43e43\transformed\localbroadcastmanager-1.0.0\AndroidManifest.xml:20:5-44
MERGED from [androidx.print:print:1.0.0] C:\Users\Hugo Sanchis León\.gradle\caches\transforms-3\24b0f0817188dac89b31b58f44df5fce\transformed\print-1.0.0\AndroidManifest.xml:20:5-44
MERGED from [androidx.print:print:1.0.0] C:\Users\Hugo Sanchis León\.gradle\caches\transforms-3\24b0f0817188dac89b31b58f44df5fce\transformed\print-1.0.0\AndroidManifest.xml:20:5-44
MERGED from [androidx.tracing:tracing:1.0.0] C:\Users\Hugo Sanchis León\.gradle\caches\transforms-3\3f2a4bef6507f4128173c5cd13b48a5e\transformed\tracing-1.0.0\AndroidManifest.xml:20:5-22:41
MERGED from [androidx.tracing:tracing:1.0.0] C:\Users\Hugo Sanchis León\.gradle\caches\transforms-3\3f2a4bef6507f4128173c5cd13b48a5e\transformed\tracing-1.0.0\AndroidManifest.xml:20:5-22:41
MERGED from [androidx.interpolator:interpolator:1.0.0] C:\Users\Hugo Sanchis León\.gradle\caches\transforms-3\d47150e517a5e93bb18204740f0831b1\transformed\interpolator-1.0.0\AndroidManifest.xml:20:5-44
MERGED from [androidx.interpolator:interpolator:1.0.0] C:\Users\Hugo Sanchis León\.gradle\caches\transforms-3\d47150e517a5e93bb18204740f0831b1\transformed\interpolator-1.0.0\AndroidManifest.xml:20:5-44
MERGED from [androidx.annotation:annotation-experimental:1.3.0] C:\Users\Hugo Sanchis León\.gradle\caches\transforms-3\e3d7ad6f35baccba88b2af06ce6c497b\transformed\annotation-experimental-1.3.0\AndroidManifest.xml:20:5-44
MERGED from [androidx.annotation:annotation-experimental:1.3.0] C:\Users\Hugo Sanchis León\.gradle\caches\transforms-3\e3d7ad6f35baccba88b2af06ce6c497b\transformed\annotation-experimental-1.3.0\AndroidManifest.xml:20:5-44
INJECTED from F:\Estudios\DAMv\2n\M08\Android-Projects\GitData\Example1\ComposeTrainingAffirmations\app\src\main\AndroidManifest.xml
INJECTED from F:\Estudios\DAMv\2n\M08\Android-Projects\GitData\Example1\ComposeTrainingAffirmations\app\src\main\AndroidManifest.xml
	android:targetSdkVersion
		INJECTED from F:\Estudios\DAMv\2n\M08\Android-Projects\GitData\Example1\ComposeTrainingAffirmations\app\src\main\AndroidManifest.xml
		ADDED from F:\Estudios\DAMv\2n\M08\Android-Projects\GitData\Example1\ComposeTrainingAffirmations\app\src\main\AndroidManifest.xml
		INJECTED from F:\Estudios\DAMv\2n\M08\Android-Projects\GitData\Example1\ComposeTrainingAffirmations\app\src\main\AndroidManifest.xml
	android:minSdkVersion
		INJECTED from F:\Estudios\DAMv\2n\M08\Android-Projects\GitData\Example1\ComposeTrainingAffirmations\app\src\main\AndroidManifest.xml
		ADDED from F:\Estudios\DAMv\2n\M08\Android-Projects\GitData\Example1\ComposeTrainingAffirmations\app\src\main\AndroidManifest.xml
		INJECTED from F:\Estudios\DAMv\2n\M08\Android-Projects\GitData\Example1\ComposeTrainingAffirmations\app\src\main\AndroidManifest.xml
activity#androidx.compose.ui.tooling.PreviewActivity
ADDED from [androidx.compose.ui:ui-tooling:1.3.3] C:\Users\Hugo Sanchis León\.gradle\caches\transforms-3\c3199c328fd778b34148698ef5a27f5c\transformed\ui-tooling-1.3.3\AndroidManifest.xml:23:9-25:39
	android:exported
		ADDED from [androidx.compose.ui:ui-tooling:1.3.3] C:\Users\Hugo Sanchis León\.gradle\caches\transforms-3\c3199c328fd778b34148698ef5a27f5c\transformed\ui-tooling-1.3.3\AndroidManifest.xml:25:13-36
	android:name
		ADDED from [androidx.compose.ui:ui-tooling:1.3.3] C:\Users\Hugo Sanchis León\.gradle\caches\transforms-3\c3199c328fd778b34148698ef5a27f5c\transformed\ui-tooling-1.3.3\AndroidManifest.xml:24:13-71
provider#androidx.startup.InitializationProvider
ADDED from [androidx.emoji2:emoji2:1.0.0] C:\Users\Hugo Sanchis León\.gradle\caches\transforms-3\639c98c02fc8f854f5b064ecfa0cd27f\transformed\emoji2-1.0.0\AndroidManifest.xml:26:9-34:20
MERGED from [androidx.lifecycle:lifecycle-process:2.4.0] C:\Users\Hugo Sanchis León\.gradle\caches\transforms-3\c2db34b1f4cb8e9b7a594c349409428b\transformed\lifecycle-process-2.4.0\AndroidManifest.xml:26:9-34:20
MERGED from [androidx.lifecycle:lifecycle-process:2.4.0] C:\Users\Hugo Sanchis León\.gradle\caches\transforms-3\c2db34b1f4cb8e9b7a594c349409428b\transformed\lifecycle-process-2.4.0\AndroidManifest.xml:26:9-34:20
MERGED from [androidx.profileinstaller:profileinstaller:1.2.0] C:\Users\Hugo Sanchis León\.gradle\caches\transforms-3\a7f3d83692cacc61d27ddf21c234f4f7\transformed\profileinstaller-1.2.0\AndroidManifest.xml:25:9-33:20
MERGED from [androidx.profileinstaller:profileinstaller:1.2.0] C:\Users\Hugo Sanchis León\.gradle\caches\transforms-3\a7f3d83692cacc61d27ddf21c234f4f7\transformed\profileinstaller-1.2.0\AndroidManifest.xml:25:9-33:20
MERGED from [androidx.startup:startup-runtime:1.1.1] C:\Users\Hugo Sanchis León\.gradle\caches\transforms-3\60f61993629506ea52e241c4714340f8\transformed\startup-runtime-1.1.1\AndroidManifest.xml:26:9-30:34
MERGED from [androidx.startup:startup-runtime:1.1.1] C:\Users\Hugo Sanchis León\.gradle\caches\transforms-3\60f61993629506ea52e241c4714340f8\transformed\startup-runtime-1.1.1\AndroidManifest.xml:26:9-30:34
	tools:node
		ADDED from [androidx.emoji2:emoji2:1.0.0] C:\Users\Hugo Sanchis León\.gradle\caches\transforms-3\639c98c02fc8f854f5b064ecfa0cd27f\transformed\emoji2-1.0.0\AndroidManifest.xml:30:13-31
	android:authorities
		ADDED from [androidx.emoji2:emoji2:1.0.0] C:\Users\Hugo Sanchis León\.gradle\caches\transforms-3\639c98c02fc8f854f5b064ecfa0cd27f\transformed\emoji2-1.0.0\AndroidManifest.xml:28:13-68
	android:exported
		ADDED from [androidx.emoji2:emoji2:1.0.0] C:\Users\Hugo Sanchis León\.gradle\caches\transforms-3\639c98c02fc8f854f5b064ecfa0cd27f\transformed\emoji2-1.0.0\AndroidManifest.xml:29:13-37
	android:name
		ADDED from [androidx.emoji2:emoji2:1.0.0] C:\Users\Hugo Sanchis León\.gradle\caches\transforms-3\639c98c02fc8f854f5b064ecfa0cd27f\transformed\emoji2-1.0.0\AndroidManifest.xml:27:13-67
meta-data#androidx.emoji2.text.EmojiCompatInitializer
ADDED from [androidx.emoji2:emoji2:1.0.0] C:\Users\Hugo Sanchis León\.gradle\caches\transforms-3\639c98c02fc8f854f5b064ecfa0cd27f\transformed\emoji2-1.0.0\AndroidManifest.xml:31:13-33:52
	android:value
		ADDED from [androidx.emoji2:emoji2:1.0.0] C:\Users\Hugo Sanchis León\.gradle\caches\transforms-3\639c98c02fc8f854f5b064ecfa0cd27f\transformed\emoji2-1.0.0\AndroidManifest.xml:33:17-49
	android:name
		ADDED from [androidx.emoji2:emoji2:1.0.0] C:\Users\Hugo Sanchis León\.gradle\caches\transforms-3\639c98c02fc8f854f5b064ecfa0cd27f\transformed\emoji2-1.0.0\AndroidManifest.xml:32:17-75
permission#${applicationId}.DYNAMIC_RECEIVER_NOT_EXPORTED_PERMISSION
ADDED from [androidx.core:core:1.9.0] C:\Users\Hugo Sanchis León\.gradle\caches\transforms-3\1abb5cd11afee5d13961a9bdaabfec71\transformed\core-1.9.0\AndroidManifest.xml:22:5-24:47
	android:protectionLevel
		ADDED from [androidx.core:core:1.9.0] C:\Users\Hugo Sanchis León\.gradle\caches\transforms-3\1abb5cd11afee5d13961a9bdaabfec71\transformed\core-1.9.0\AndroidManifest.xml:24:9-44
	android:name
		ADDED from [androidx.core:core:1.9.0] C:\Users\Hugo Sanchis León\.gradle\caches\transforms-3\1abb5cd11afee5d13961a9bdaabfec71\transformed\core-1.9.0\AndroidManifest.xml:23:9-81
permission#com.example.affirmations.DYNAMIC_RECEIVER_NOT_EXPORTED_PERMISSION
ADDED from [androidx.core:core:1.9.0] C:\Users\Hugo Sanchis León\.gradle\caches\transforms-3\1abb5cd11afee5d13961a9bdaabfec71\transformed\core-1.9.0\AndroidManifest.xml:22:5-24:47
	android:protectionLevel
		ADDED from [androidx.core:core:1.9.0] C:\Users\Hugo Sanchis León\.gradle\caches\transforms-3\1abb5cd11afee5d13961a9bdaabfec71\transformed\core-1.9.0\AndroidManifest.xml:24:9-44
	android:name
		ADDED from [androidx.core:core:1.9.0] C:\Users\Hugo Sanchis León\.gradle\caches\transforms-3\1abb5cd11afee5d13961a9bdaabfec71\transformed\core-1.9.0\AndroidManifest.xml:23:9-81
uses-permission#${applicationId}.DYNAMIC_RECEIVER_NOT_EXPORTED_PERMISSION
ADDED from [androidx.core:core:1.9.0] C:\Users\Hugo Sanchis León\.gradle\caches\transforms-3\1abb5cd11afee5d13961a9bdaabfec71\transformed\core-1.9.0\AndroidManifest.xml:26:5-97
	android:name
		ADDED from [androidx.core:core:1.9.0] C:\Users\Hugo Sanchis León\.gradle\caches\transforms-3\1abb5cd11afee5d13961a9bdaabfec71\transformed\core-1.9.0\AndroidManifest.xml:26:22-94
uses-permission#com.example.affirmations.DYNAMIC_RECEIVER_NOT_EXPORTED_PERMISSION
ADDED from [androidx.core:core:1.9.0] C:\Users\Hugo Sanchis León\.gradle\caches\transforms-3\1abb5cd11afee5d13961a9bdaabfec71\transformed\core-1.9.0\AndroidManifest.xml:26:5-97
	android:name
		ADDED from [androidx.core:core:1.9.0] C:\Users\Hugo Sanchis León\.gradle\caches\transforms-3\1abb5cd11afee5d13961a9bdaabfec71\transformed\core-1.9.0\AndroidManifest.xml:26:22-94
meta-data#androidx.lifecycle.ProcessLifecycleInitializer
ADDED from [androidx.lifecycle:lifecycle-process:2.4.0] C:\Users\Hugo Sanchis León\.gradle\caches\transforms-3\c2db34b1f4cb8e9b7a594c349409428b\transformed\lifecycle-process-2.4.0\AndroidManifest.xml:31:13-33:52
	android:value
		ADDED from [androidx.lifecycle:lifecycle-process:2.4.0] C:\Users\Hugo Sanchis León\.gradle\caches\transforms-3\c2db34b1f4cb8e9b7a594c349409428b\transformed\lifecycle-process-2.4.0\AndroidManifest.xml:33:17-49
	android:name
		ADDED from [androidx.lifecycle:lifecycle-process:2.4.0] C:\Users\Hugo Sanchis León\.gradle\caches\transforms-3\c2db34b1f4cb8e9b7a594c349409428b\transformed\lifecycle-process-2.4.0\AndroidManifest.xml:32:17-78
meta-data#androidx.profileinstaller.ProfileInstallerInitializer
ADDED from [androidx.profileinstaller:profileinstaller:1.2.0] C:\Users\Hugo Sanchis León\.gradle\caches\transforms-3\a7f3d83692cacc61d27ddf21c234f4f7\transformed\profileinstaller-1.2.0\AndroidManifest.xml:30:13-32:52
	android:value
		ADDED from [androidx.profileinstaller:profileinstaller:1.2.0] C:\Users\Hugo Sanchis León\.gradle\caches\transforms-3\a7f3d83692cacc61d27ddf21c234f4f7\transformed\profileinstaller-1.2.0\AndroidManifest.xml:32:17-49
	android:name
		ADDED from [androidx.profileinstaller:profileinstaller:1.2.0] C:\Users\Hugo Sanchis León\.gradle\caches\transforms-3\a7f3d83692cacc61d27ddf21c234f4f7\transformed\profileinstaller-1.2.0\AndroidManifest.xml:31:17-85
receiver#androidx.profileinstaller.ProfileInstallReceiver
ADDED from [androidx.profileinstaller:profileinstaller:1.2.0] C:\Users\Hugo Sanchis León\.gradle\caches\transforms-3\a7f3d83692cacc61d27ddf21c234f4f7\transformed\profileinstaller-1.2.0\AndroidManifest.xml:35:9-47:20
	android:enabled
		ADDED from [androidx.profileinstaller:profileinstaller:1.2.0] C:\Users\Hugo Sanchis León\.gradle\caches\transforms-3\a7f3d83692cacc61d27ddf21c234f4f7\transformed\profileinstaller-1.2.0\AndroidManifest.xml:38:13-35
	android:exported
		ADDED from [androidx.profileinstaller:profileinstaller:1.2.0] C:\Users\Hugo Sanchis León\.gradle\caches\transforms-3\a7f3d83692cacc61d27ddf21c234f4f7\transformed\profileinstaller-1.2.0\AndroidManifest.xml:39:13-36
	android:permission
		ADDED from [androidx.profileinstaller:profileinstaller:1.2.0] C:\Users\Hugo Sanchis León\.gradle\caches\transforms-3\a7f3d83692cacc61d27ddf21c234f4f7\transformed\profileinstaller-1.2.0\AndroidManifest.xml:40:13-57
	android:directBootAware
		ADDED from [androidx.profileinstaller:profileinstaller:1.2.0] C:\Users\Hugo Sanchis León\.gradle\caches\transforms-3\a7f3d83692cacc61d27ddf21c234f4f7\transformed\profileinstaller-1.2.0\AndroidManifest.xml:37:13-44
	android:name
		ADDED from [androidx.profileinstaller:profileinstaller:1.2.0] C:\Users\Hugo Sanchis León\.gradle\caches\transforms-3\a7f3d83692cacc61d27ddf21c234f4f7\transformed\profileinstaller-1.2.0\AndroidManifest.xml:36:13-76
intent-filter#action:name:androidx.profileinstaller.action.INSTALL_PROFILE
ADDED from [androidx.profileinstaller:profileinstaller:1.2.0] C:\Users\Hugo Sanchis León\.gradle\caches\transforms-3\a7f3d83692cacc61d27ddf21c234f4f7\transformed\profileinstaller-1.2.0\AndroidManifest.xml:41:13-43:29
action#androidx.profileinstaller.action.INSTALL_PROFILE
ADDED from [androidx.profileinstaller:profileinstaller:1.2.0] C:\Users\Hugo Sanchis León\.gradle\caches\transforms-3\a7f3d83692cacc61d27ddf21c234f4f7\transformed\profileinstaller-1.2.0\AndroidManifest.xml:42:17-91
	android:name
		ADDED from [androidx.profileinstaller:profileinstaller:1.2.0] C:\Users\Hugo Sanchis León\.gradle\caches\transforms-3\a7f3d83692cacc61d27ddf21c234f4f7\transformed\profileinstaller-1.2.0\AndroidManifest.xml:42:25-88
intent-filter#action:name:androidx.profileinstaller.action.SKIP_FILE
ADDED from [androidx.profileinstaller:profileinstaller:1.2.0] C:\Users\Hugo Sanchis León\.gradle\caches\transforms-3\a7f3d83692cacc61d27ddf21c234f4f7\transformed\profileinstaller-1.2.0\AndroidManifest.xml:44:13-46:29
action#androidx.profileinstaller.action.SKIP_FILE
ADDED from [androidx.profileinstaller:profileinstaller:1.2.0] C:\Users\Hugo Sanchis León\.gradle\caches\transforms-3\a7f3d83692cacc61d27ddf21c234f4f7\transformed\profileinstaller-1.2.0\AndroidManifest.xml:45:17-85
	android:name
		ADDED from [androidx.profileinstaller:profileinstaller:1.2.0] C:\Users\Hugo Sanchis León\.gradle\caches\transforms-3\a7f3d83692cacc61d27ddf21c234f4f7\transformed\profileinstaller-1.2.0\AndroidManifest.xml:45:25-82
